{"regions":[{"id":"asia-pacific-east","fullName":"East Asia","location":"Hong Kong","geoSlug":"asia-pacific","isActive":true,"isGovernment":false,"apiUrl":"https://azure.microsoft.com/api/v2/regions/asia-pacific-east/"},{"id":"asia-pacific-southeast","fullName":"Southeast Asia","location":"Singapore","geoSlug":"asia-pacific","isActive":true,"isGovernment":false,"apiUrl":"https://azure.microsoft.com/api/v2/regions/asia-pacific-southeast/"},{"id":"australia-central","fullName":"Australia Central","location":"Canberra","geoSlug":"australia","isActive":true,"isGovernment":false,"apiUrl":"https://azure.microsoft.com/api/v2/regions/australia-central/"},{"id":"australia-central-2","fullName":"Australia Central 2","location":"Canberra","geoSlug":"australia","isActive":true,"isGovernment":false,"apiUrl":"https://azure.microsoft.com/api/v2/regions/australia-central-2/"},{"id":"australia-east","fullName":"Australia East","location":"New South Wales","geoSlug":"australia","isActive":true,"isGovernment":false,"apiUrl":"https://azure.microsoft.com/api/v2/regions/australia-east/"},{"id":"australia-southeast","fullName":"Australia Southeast","location":"Victoria","geoSlug":"australia","isActive":true,"isGovernment":false,"apiUrl":"https://azure.microsoft.com/api/v2/regions/australia-southeast/"},{"id":"brazil-south","fullName":"Brazil South","location":"Sao Paulo State","geoSlug":"brazil","isActive":true,"isGovernment":false,"apiUrl":"https://azure.microsoft.com/api/v2/regions/brazil-south/"},{"id":"canada-central","fullName":"Canada Central","location":"Toronto","geoSlug":"canada","isActive":true,"isGovernment":false,"apiUrl":"https://azure.microsoft.com/api/v2/regions/canada-central/"},{"id":"canada-east","fullName":"Canada East","location":"Quebec City","geoSlug":"canada","isActive":true,"isGovernment":false,"apiUrl":"https://azure.microsoft.com/api/v2/regions/canada-east/"},{"id":"central-india","fullName":"Central India","location":"Pune","geoSlug":"india","isActive":true,"isGovernment":false,"apiUrl":"https://azure.microsoft.com/api/v2/regions/central-india/"},{"id":"china-east","fullName":"China East","location":"Shanghai","geoSlug":"china","isActive":true,"isGovernment":false,"apiUrl":"https://azure.microsoft.com/api/v2/regions/china-east/"},{"id":"china-north","fullName":"China North","location":"Beijing","geoSlug":"china","isActive":true,"isGovernment":false,"apiUrl":"https://azure.microsoft.com/api/v2/regions/china-north/"},{"id":"europe-north","fullName":"North Europe","location":"Ireland","geoSlug":"europe","isActive":true,"isGovernment":false,"apiUrl":"https://azure.microsoft.com/api/v2/regions/europe-north/"},{"id":"europe-west","fullName":"West Europe","location":"Netherlands","geoSlug":"europe","isActive":true,"isGovernment":false,"apiUrl":"https://azure.microsoft.com/api/v2/regions/europe-west/"},{"id":"france-central","fullName":"France Central","location":"Paris","geoSlug":"france","isActive":true,"isGovernment":false,"apiUrl":"https://azure.microsoft.com/api/v2/regions/france-central/"},{"id":"france-south","fullName":"France South","location":"Marseille","geoSlug":"france","isActive":true,"isGovernment":false,"apiUrl":"https://azure.microsoft.com/api/v2/regions/france-south/"},{"id":"germany-central","fullName":"Germany Central","location":"Frankfurt","geoSlug":"germany","isActive":true,"isGovernment":false,"apiUrl":"https://azure.microsoft.com/api/v2/regions/germany-central/"},{"id":"germany-non-regional","fullName":"Germany Non-Regional","location":"Non-Regional","geoSlug":"germany","isActive":true,"isGovernment":false,"apiUrl":"https://azure.microsoft.com/api/v2/regions/germany-non-regional/"},{"id":"germany-northeast","fullName":"Germany Northeast","location":"Magdeburg","geoSlug":"germany","isActive":true,"isGovernment":false,"apiUrl":"https://azure.microsoft.com/api/v2/regions/germany-northeast/"},{"id":"japan-east","fullName":"Japan East","location":"Tokyo, Saitama","geoSlug":"japan","isActive":true,"isGovernment":false,"apiUrl":"https://azure.microsoft.com/api/v2/regions/japan-east/"},{"id":"japan-west","fullName":"Japan West","location":"Osaka","geoSlug":"japan","isActive":true,"isGovernment":false,"apiUrl":"https://azure.microsoft.com/api/v2/regions/japan-west/"},{"id":"korea-central","fullName":"Korea Central","location":"Seoul","geoSlug":"korea","isActive":true,"isGovernment":false,"apiUrl":"https://azure.microsoft.com/api/v2/regions/korea-central/"},{"id":"korea-south","fullName":"Korea South","location":"Busan","geoSlug":"korea","isActive":true,"isGovernment":false,"apiUrl":"https://azure.microsoft.com/api/v2/regions/korea-south/"},{"id":"south-africa-north","fullName":"South Africa North","location":"Johannesburg","geoSlug":"africa","isActive":true,"isGovernment":false,"apiUrl":"https://azure.microsoft.com/api/v2/regions/south-africa-north/"},{"id":"south-africa-west","fullName":"South Africa West","location":"Cape Town","geoSlug":"africa","isActive":true,"isGovernment":false,"apiUrl":"https://azure.microsoft.com/api/v2/regions/south-africa-west/"},{"id":"south-india","fullName":"South India","location":"Chennai","geoSlug":"india","isActive":true,"isGovernment":false,"apiUrl":"https://azure.microsoft.com/api/v2/regions/south-india/"},{"id":"united-kingdom-south","fullName":"UK South","location":"London","geoSlug":"united-kingdom","isActive":true,"isGovernment":false,"apiUrl":"https://azure.microsoft.com/api/v2/regions/united-kingdom-south/"},{"id":"united-kingdom-west","fullName":"UK West","location":"Cardiff","geoSlug":"united-kingdom","isActive":true,"isGovernment":false,"apiUrl":"https://azure.microsoft.com/api/v2/regions/united-kingdom-west/"},{"id":"us-central","fullName":"Central US","location":"Iowa","geoSlug":"united-states","isActive":true,"isGovernment":false,"apiUrl":"https://azure.microsoft.com/api/v2/regions/us-central/"},{"id":"us-dod-central","fullName":"US DoD Central","location":"Iowa","geoSlug":"azure-government","isActive":true,"isGovernment":true,"apiUrl":"https://azure.microsoft.com/api/v2/regions/us-dod-central/"},{"id":"us-dod-east","fullName":"US DoD East","location":"Virginia","geoSlug":"azure-government","isActive":true,"isGovernment":true,"apiUrl":"https://azure.microsoft.com/api/v2/regions/us-dod-east/"},{"id":"us-east-2","fullName":"East US 2","location":"Virginia","geoSlug":"united-states","isActive":true,"isGovernment":false,"apiUrl":"https://azure.microsoft.com/api/v2/regions/us-east-2/"},{"id":"us-east","fullName":"East US","location":"Virginia","geoSlug":"united-states","isActive":true,"isGovernment":false,"apiUrl":"https://azure.microsoft.com/api/v2/regions/us-east/"},{"id":"us-north-central","fullName":"North Central US","location":"Illinois","geoSlug":"united-states","isActive":true,"isGovernment":false,"apiUrl":"https://azure.microsoft.com/api/v2/regions/us-north-central/"},{"id":"us-south-central","fullName":"South Central US","location":"Texas","geoSlug":"united-states","isActive":true,"isGovernment":false,"apiUrl":"https://azure.microsoft.com/api/v2/regions/us-south-central/"},{"id":"us-west-2","fullName":"West US 2","location":"Washington","geoSlug":"united-states","isActive":true,"isGovernment":false,"apiUrl":"https://azure.microsoft.com/api/v2/regions/us-west-2/"},{"id":"us-west-central","fullName":"West Central US","location":"Wyoming","geoSlug":"united-states","isActive":true,"isGovernment":false,"apiUrl":"https://azure.microsoft.com/api/v2/regions/us-west-central/"},{"id":"us-west","fullName":"West US","location":"California","geoSlug":"united-states","isActive":true,"isGovernment":false,"apiUrl":"https://azure.microsoft.com/api/v2/regions/us-west/"},{"id":"usgov-arizona","fullName":"US Gov Arizona","location":"Arizona","geoSlug":"azure-government","isActive":true,"isGovernment":true,"apiUrl":"https://azure.microsoft.com/api/v2/regions/usgov-arizona/"},{"id":"usgov-iowa","fullName":"US Gov Iowa","location":"Iowa","geoSlug":"azure-government","isActive":true,"isGovernment":true,"apiUrl":"https://azure.microsoft.com/api/v2/regions/usgov-iowa/"}],"limit":40,"offset":0,"count":40,"totalCount":58,"next":"https://azure.microsoft.com/api/v2/regions/?offset=40&limit=40"}